"1","I Región Tarapaca","1"
"2","II Región Antofagasta","1"
"3","III Región Atacama","1"
"4","IV Región Coquimbo","1"
"5","V Región  Valparaiso","1"
"6","VI Región Lib. Bernardo O`Higgins","1"
"7","VII Región Maule","1"
"8","VIII Región Bío-Bío","1"
"9","IX Región Araucania","1"
"10","X Región Los Lagos","1"
"11","XI Región Aysén","1"
"12","XII Región Magallanes","1"
"13","XIII Región Metropolitana","1"
"14","XIV Región de los Ríos","1"
"15","XV Región de Arica y Parinacota","1"
